{
	"mappings":{
		"_doc": {
			"properties":{
				"id": {
					"type":"keyword"
				},
				"account_id": {
					"type":"keyword"
				},
				"branch_service_ids":{
					"type":"keyword"
				},
				"note":{
					"type":"completion"
				},
				"customer_id":{
					"type":"keyword"
				},
				"start_service":{
					"type":"long"
				},
				"state":{
					"type":"keywork"
				}
			}
		}
	}
}